Chapter 7 Making comparisons between groups and strata | Exploratory Data Analysis in the 21st Century
…
The fitted regression model is given as:
\[\text{logit}(\hat{p}_i) = \hat{\beta}_0  + \hat{\beta}_1 x_{i1}.\]

Taking the exponential of both sides and rearranging we get
\[\hat{p}_i = \dfrac{1}{1 + e^{-(\hat{\beta}_0  + \hat{\beta}_1 x_{i1})}}.\]

menarche %>% 
  rowwise() %>% # simulating from first principles
  mutate(
    phat = 1/(1 + exp(-(beta[1] + beta[2] * Age))),
    simMenarche = rbinom(1, Total, phat)) #<<

## # A tibble: 25 x 5
## # Rowwise: 
##      Age Total Menarche    phat simMenarche
##    <dbl> <dbl>    <dbl>   <dbl>       <int>
##  1  9.21   376        0 0.00224           2
##  2 10.2    200        0 0.0111            5
##  3 10.6     93        0 0.0199            0
##  4 10.8    120        2 0.0294            5
##  5 11.1     90        2 0.0434            8
##  6 11.3     88        5 0.0635           10
##  7 11.6    105       10 0.0920            8
##  8 11.8    111       17 0.132            14
##  9 12.1    100       16 0.185            25
## 10 12.3     93       29 0.253            18
## # … with 15 more rows
…
7.42 Extracting values from models in R

The leverage value, studentised residual and Cook’s distance can be easily extracted from a model object using broom::augment.

.hat is the leverage value

.std.resid is the studentised residual

.cooksd is the Cook’s distance

fit <- lm(sales ~ youtube * facebook, data = marketing)
broom::augment(fit)

## # A tibble: 200 x 9
##    sales youtube facebook .fitted  .resid    .hat .sigma   .cooksd .std.resid
##    <dbl>   <dbl>    <dbl>   <dbl>   <dbl>   <dbl>  <dbl>     <dbl>      <dbl>
##  1 26.5    276.     45.4    26.0   0.496  0.0174    1.13 0.000864      0.442 
##  2 12.5     53.4    47.2    12.8  -0.281  0.0264    1.13 0.000431     -0.252 
##  3 11.2     20.6    55.1    11.1   0.0465 0.0543    1.14 0.0000256     0.0423
##  4 22.2    182.     49.6    21.2   1.04   0.0124    1.13 0.00268       0.923 
##  5 15.5    217.     13.0    15.2   0.316  0.0104    1.13 0.000207      0.280 
##  6  8.64    10.4    58.7    10.5  -1.91   0.0709    1.13 0.0583       -1.75  
##  7 14.2     69      39.4    13.0   1.15   0.0149    1.13 0.00395       1.02  
##  8 15.8    144.     23.5    14.6   1.23   0.00577   1.13 0.00173       1.09  
##  9  5.76    10.3     2.52    8.39 -2.63   0.0553    1.12 0.0838       -2.39  
## 10 12.7    240.      3.12   13.4  -0.727  0.0219    1.13 0.00236      -0.649 
## # … with 190 more rows
