Chapter 4 Working with a single variable | Exploratory Data Analysis in the 21st Century
…
Midparent’s height is an average of the father’s height and 1.08 times the mother’s height.

The data contains 205 parents and 928 children.

galton %>% 
  arrange(parent, child) %>% 
  as_tibble() %>% 
  print(n = 3)

## # A tibble: 928 x 2
##   child parent
##   <dbl>  <dbl>
## 1  61.7     64
## 2  63.2     64
## 3  63.2     64
## # … with 925 more rows
…
